…
## A simple example: scraping balance sheet data from fd.nl

The package provides easy to use functions to scrape existing key
figures from beurs.fd.nl:

``` r
library(FDScraper)

## scrape balance sheet data from Heineken
heineken_data <- extract_balance_data("https://beurs.fd.nl/noteringen/11770/heineken/kerncijfers")
print(heineken_data)
#> # A tibble: 23 x 6
#>    X1                           X2     X3     X4     X5     X6    
#>    <chr>                        <chr>  <chr>  <chr>  <chr>  <chr> 
#>  1 Balans (bedragen in € mln)   2021   2020   2019   2018   2017  
#>  2 Immateriële vaste activa     20.762 15.767 17.769 17.459 17.670
#>  3 Materiële vaste activa       12.401 11.551 13.269 11.359 11.117
#>  4 Financiële vaste activa      4.148  4.437  4.868  2.021  2.954 
#>  5 Vaste activa                 39.272 33.612 38.085 32.886 32.786
#>  6 Voorraden                    2.438  1.958  2.213  1.920  1.814 
#>  7 Debiteuren                   2.376  1.768  2.913  2.588  2.582 
#>  8 Overige vlottende activa     1.961  1.857  2.179  2.047  1.045 
#>  9 Effecten en liquide middelen 3.248  4.000  1.821  2.903  2.442 
#> 10 Vlottende activa             9.578  9.020  8.419  9.070  8.248 
#> # … with 13 more rows

# Or from Ahold Delhaize
ahold_delhaize_data <- extract_balance_data("https://beurs.fd.nl/noteringen/11755/ahold-delhaize/kerncijfers")
print(ahold_delhaize_data)
#> # A tibble: 23 x 6
#>    X1                           X2     X3     X4     X5     X6    
#>    <chr>                        <chr>  <chr>  <chr>  <chr>  <chr> 
#>  1 Balans (bedragen in € mln)   2021   2020   2019   2018   2017  
#>  2 Immateriële vaste activa     12.770 11.565 12.060 12.013 11.634
#>  3 Materiële vaste activa       20.848 18.151 17.825 11.147 10.689
#>  4 Financiële vaste activa      952    966    1.112  865    880   
#>  5 Vaste activa                 36.128 31.764 31.920 24.489 23.901
#>  6 Voorraden                    3.728  3.245  3.347  3.196  3.077 
#>  7 Debiteuren                   1.055  1.122  991    940    917   
#>  8 Overige vlottende activa     1.558  1.081  923    464    698   
#>  9 Effecten en liquide middelen 2.993  2.933  3.717  3.122  4.581 
#> 10 Vlottende activa             9.584  8.927  9.570  8.842  9.970 
#> # … with 13 more rows
```
…
